module imageapi

go 1.19

require (
	github.com/bytedance/sonic v1.8.3 // indirect
	github.com/chenzhuoyu/base64x v0.0.0-20221115062448-fe3a3abad311 // indirect
	github.com/dustin/go-humanize v1.0.1 // indirect
	github.com/gin-contrib/sse v0.1.0 // indirect
	github.com/gin-gonic/gin v1.9.0 // indirect
	github.com/go-playground/locales v0.14.1 // indirect
	github.com/go-playground/universal-translator v0.18.1 // indirect
	github.com/go-playground/validator/v10 v10.11.2 // indirect
	github.com/goccy/go-json v0.10.0 // indirect
	github.com/google/uuid v1.3.0 // indirect
	github.com/json-iterator/go v1.1.12 // indirect
	github.com/klauspost/compress v1.15.15 // indirect
	github.com/klauspost/cpuid/v2 v2.2.4 // indirect
	github.com/leodido/go-urn v1.2.2 // indirect
	github.com/mattn/go-isatty v0.0.17 // indirect
	github.com/minio/md5-simd v1.1.2 // indirect
	github.com/minio/minio-go/v7 v7.0.49 // indirect
	github.com/minio/sha256-simd v1.0.0 // indirect
	github.com/modern-go/concurrent v0.0.0-20180306012644-bacd9c7ef1dd // indirect
	github.com/modern-go/reflect2 v1.0.2 // indirect
	github.com/pelletier/go-toml/v2 v2.0.7 // indirect
	github.com/rs/xid v1.4.0 // indirect
	github.com/sirupsen/logrus v1.9.0 // indirect
	github.com/twitchyliquid64/golang-asm v0.15.1 // indirect
	github.com/ugorji/go/codec v1.2.11 // indirect
	golang.org/x/arch v0.3.0 // indirect
	golang.org/x/crypto v0.7.0 // indirect
	golang.org/x/net v0.8.0 // indirect
	golang.org/x/sys v0.6.0 // indirect
	golang.org/x/text v0.8.0 // indirect
	google.golang.org/protobuf v1.29.0 // indirect
	gopkg.in/gographics/imagick.v2 v2.6.2 // indirect
	gopkg.in/ini.v1 v1.67.0 // indirect
	gopkg.in/yaml.v3 v3.0.1 // indirect
)
